…
> results <- brms_inla_power_two_stage(
+   formula = outcome ~ treatment + covariate,
+   effect_name = c("treatment", "covariate"),
+   effect_grid = effect_grid,
+   n_range = c(50, 200),
+   stage1_nsims = 3,
+   stage2_nsims = 3,
+    error_sd = 1 
+ )
Multi-effect grid detected with 6 effect combinations
No priors specified - using brms default weakly informative priors.
Multi-effect grid detected with 6 effect combinations
No priors specified - using brms default weakly informative priors.
> print(results$summary)
# A tibble: 84 × 12
       n treatment covariate power_direction power_threshold power_rope
   <dbl>     <dbl>     <dbl>           <dbl>           <dbl>      <dbl>
 1    50       0.2       0.1           0.333           0.333         NA
 2    50       0.2       0.3           0.333           0.333         NA
 3    50       0.5       0.1           0.333           0.333         NA
 4    50       0.5       0.3           0.667           0.667         NA
 5    50       0.8       0.1           0.667           0.667         NA
 6    50       0.8       0.3           0.667           0.667         NA
 7    71       0.2       0.1           0.667           0.667         NA
 8    71       0.2       0.3           0.667           0.667         NA
 9    71       0.5       0.1           0.333           0.333         NA
10    71       0.5       0.3           1               1             NA
# ℹ 74 more rows
# ℹ 6 more variables: avg_ci_width <dbl>, ci_coverage <dbl>, bf_hit_3 <dbl>,
#   bf_hit_10 <dbl>, mean_log10_bf <dbl>, nsims_ok <int>
…
